[
    {
        "key": "f5",
        "command": "-workbench.action.debug.continue",
        "when": "inDebugMode"
    },
    {
        "key": "f7",
        "command": "-cmake.build"
    },
    {
        "key": "f7",
        "command": "-editor.action.wordHighlight.next",
        "when": "editorTextFocus && hasWordHighlights"
    },
    {
        "key": "f8",
        "command": "-editor.action.marker.nextInFiles",
        "when": "editorFocus && !editorReadonly"
    },
    {
        "key": "f9",
        "command": "-editor.debug.action.toggleBreakpoint",
        "when": "editorTextFocus"
    },
    {
        "key": "f10",
        "command": "-workbench.action.debug.stepOver",
        "when": "inDebugMode"
    },
    {
        "key": "f11",
        "command": "-workbench.action.debug.stepInto",
        "when": "inDebugMode"
    },
    {
        "key": "shift+f11",
        "command": "-workbench.action.debug.stepOut",
        "when": "debugState == 'stopped'"
    },
    {
        "key": "ctrl+w",
        "command": "-workbench.action.closeWindow",
        "when": "!editorIsOpen && !multipleEditorGroups"
    },
    {
        "key": "ctrl+q",
        "command": "-workbench.action.quit"
    },
    {
        // too easy to try to delete a line thinking the cell is focused and end up deleting the cell instead
        "key": "d d",
        "command": "-notebook.cell.delete",
        "when": "notebookEditorFocused && !inputFocus && !notebookOutputInputFocused"
    },
///////////////////////////////////////////
    {
        "key": "f7",
        "command": "workbench.action.debug.stepInto",
        "when": "inDebugMode"
    },
    {
        "key": "shift+f7",
        "command": "workbench.action.debug.stepOut",
        "when": "inDebugMode && debugState == 'stopped'"
    },
    {
        "key": "f8",
        "command": "workbench.action.debug.stepOver",
        "when": "inDebugMode"
    },
    {
        "key": "f9",
        "command": "workbench.action.debug.continue",
        "when": "inDebugMode"
    },
    {
        "key": "alt+enter",
        "command": "editor.action.quickFix",
        "when": "editorHasCodeActionsProvider && editorTextFocus && !editorReadonly"
    },
    {
        "key": "ctrl+.",
        "command": "-editor.action.quickFix",
        "when": "editorHasCodeActionsProvider && editorTextFocus && !editorReadonly"
    },
    {
        // in vim <S-ESC> behaves like <ESC> but in vscode it does nothing.
        // When typing some sequences like `A;<ESC>` I often do not release shift in time
        "key": "shift+escape",
        "command": "vscode-neovim.escape",
        "when": "editorTextFocus && neovim.mode == insert && !inDebugRepl"
    },
    {
        // oem_8 == ` on UK and US keyboards
        "key": "ctrl+oem_8",
        "command": "workbench.action.terminal.focus",
        "when": "editorTextFocus"
    },
    {
        // oem_8 == ` on UK and US keyboards
        "key": "ctrl+oem_8",
        "command": "workbench.action.focusActiveEditorGroup",
        "when": "terminalFocus"
    },
    {
        "key": "ctrl+n",
        "command": "workbench.action.quickOpenNavigateNext",
        "when": "inQuickOpen"
    },
    {
        "key": "ctrl+p",
        "command": "workbench.action.quickOpenNavigatePrevious",
        "when": "inQuickOpen"
    },
    {
        // in the quickFix menu
        "key": "ctrl+n",
        "command": "selectNextCodeAction",
        "when": "codeActionMenuVisible"
    },
    {
        // in the quickFix menu
        "key": "ctrl+p",
        "command": "selectPrevCodeAction",
        "when": "codeActionMenuVisible"
    },
    {
        // from https://github.com/VSCodeVim/Vim/issues/3990
        // the default C-i and C-o handling is currently broken in vscode vim
        "key": "ctrl+o",
        "command": "workbench.action.navigateBack"
    },
    {
        "key": "ctrl+i",
        "command": "workbench.action.navigateForward"
    },
    {
        "key": "ctrl+9",
        "command": "editor.action.triggerParameterHints",
        "when": "editorTextFocus"
    },
    {
        // by default, Ctrl+L will scroll the content off the screen but not clear the history
        "key": "ctrl+l",
        "command": "workbench.action.terminal.clear",
        "when": "terminalFocus"
    }
]
